<mxfile host="app.diagrams.net" modified="2021-02-24T21:54:39.596Z" agent="5.0 (X11; Linux x86_64) AppleWebKit/537.36 (KHTML, like Gecko) Chrome/87.0.4280.88 Safari/537.36" etag="BZWwzlzk_XqOOVYNjzrj" version="14.4.3" type="gitlab">
  <diagram id="QYAb63h7y1BuMjnXknaW" name="Page-1">
    <mxGraphModel dx="1108" dy="489" grid="1" gridSize="10" guides="1" tooltips="1" connect="1" arrows="1" fold="1" page="1" pageScale="1" pageWidth="827" pageHeight="1169" math="0" shadow="0">
      <root>
        <mxCell id="0" />
        <mxCell id="1" parent="0" />
        <mxCell id="D5o5pQTXXyLyHIH0oOd_-3" value="" style="edgeStyle=orthogonalEdgeStyle;rounded=0;orthogonalLoop=1;jettySize=auto;html=1;" edge="1" parent="1" source="D5o5pQTXXyLyHIH0oOd_-1" target="D5o5pQTXXyLyHIH0oOd_-2">
          <mxGeometry relative="1" as="geometry" />
        </mxCell>
        <mxCell id="D5o5pQTXXyLyHIH0oOd_-1" value="" style="rounded=1;whiteSpace=wrap;html=1;" vertex="1" parent="1">
          <mxGeometry x="350" y="220" width="120" height="60" as="geometry" />
        </mxCell>
        <mxCell id="D5o5pQTXXyLyHIH0oOd_-2" value="" style="rounded=1;whiteSpace=wrap;html=1;" vertex="1" parent="1">
          <mxGeometry x="350" y="360" width="120" height="60" as="geometry" />
        </mxCell>
      </root>
    </mxGraphModel>
  </diagram>
</mxfile>
